…
``` r
# A little more convenience is provided by `fcwt_df` which returns
# a data frame, already establishes a connection to physical units, and
# allows for pooling, and other small quality-of-live improvements:
df <- fcwt_df(
  ts_sin_superpos,
  sampling_rate = 44100,
  time_resolution = 0.001
)

df
#> # A tibble: 16,320 × 4
#>    time_ind  time   freq value
#>       <dbl> <dbl>  <dbl> <dbl>
#>  1        0     0 21185.    NA
#>  2        0     0 20000.    NA
#>  3        0     0 18881.    NA
#>  4        0     0 17824.    NA
#>  5        0     0 16827.    NA
#>  6        0     0 15886.    NA
#>  7        0     0 14997.    NA
#>  8        0     0 14158.    NA
#>  9        0     0 13366.    NA
#> 10        0     0 12618.    NA
#> # … with 16,310 more rows
…
