Convert the scalogram matrix to a tibble — as_tibble.fcwtr_scalogram • fCWTr
…
    This method is conceptually identical to as.data.frame(),
it simply returns a tibble::tibble() instead of a data.frame().

    Examples

library(tibble)

fcwt(
  sin((1:5000) * 2 * pi * 440 / 44100),
  x_sample_freq = u(44100, "Hz"),
  n_freqs = 10
) |>
  as_tibble()
#> # A tibble: 3,130 × 4
#>    time_index     time   freq       value
#>         <dbl>      [s]   [Hz]       <dbl>
#>  1          0 0        22050. NA         
#>  2          1 0.000380 22050.  0.0000123 
#>  3          2 0.000760 22050.  0.00000782
#>  4          3 0.00114  22050.  0.00000603
#>  5          4 0.00152  22050.  0.00000509
#>  6          5 0.00190  22050.  0.00000451
#>  7          6 0.00228  22050.  0.00000412
#>  8          7 0.00266  22050.  0.00000383
#>  9          8 0.00304  22050.  0.00000362
#> 10          9 0.00342  22050.  0.00000346
#> # ℹ 3,120 more rows
…
